Compute strings sizes — strings_sizes • gdtools
…
bold
A logical vector indicating whether the text should be bold.
Default is FALSE. This argument is vectorized.

italic
A logical vector indicating whether the text should be italic.
Default is FALSE. This argument is vectorized.

    Examples

strings_sizes(letters)
#> # A tibble: 26 × 3
#>     width ascent descent
#>     <dbl>  <dbl>   <dbl>
#>  1 0.0851 0.0694  0     
#>  2 0.0881 0.111   0     
#>  3 0.0764 0.0694  0     
#>  4 0.0881 0.111   0     
#>  5 0.0855 0.0694  0     
#>  6 0.0488 0.111   0     
#>  7 0.0881 0.0694  0.0278
#>  8 0.0881 0.111   0     
#>  9 0.0386 0.111   0     
#> 10 0.0386 0.111   0.0278
#> # ℹ 16 more rows
…
